^D:\MODERN-X86-ASSEMBLY-LANGUAGE-PROGRAMMING-2E\CHAPTER13\CH13_04\X64\DEBUG\CH13_04.OBJ|D:\MODERN-X86-ASSEMBLY-LANGUAGE-PROGRAMMING-2E\CHAPTER13\CH13_04\X64\DEBUG\CH13_04_.OBJ|D:\MODERN-X86-ASSEMBLY-LANGUAGE-PROGRAMMING-2E\CHAPTER13\CH13_04\X64\DEBUG\STDAFX.OBJ
D:\MODERN-X86-ASSEMBLY-LANGUAGE-PROGRAMMING-2E\CHAPTER13\CH13_04\X64\DEBUG\CH13_04.ILK
D:\MODERN-X86-ASSEMBLY-LANGUAGE-PROGRAMMING-2E\CHAPTER13\X64\DEBUG\CH13_04.EXE
D:\MODERN-X86-ASSEMBLY-LANGUAGE-PROGRAMMING-2E\CHAPTER13\X64\DEBUG\CH13_04.PDB
