^D:\MODERN-X86-ASSEMBLY-LANGUAGE-PROGRAMMING-2E\CHAPTER13\CH13_03\X64\DEBUG\CH13_03.OBJ|D:\MODERN-X86-ASSEMBLY-LANGUAGE-PROGRAMMING-2E\CHAPTER13\CH13_03\X64\DEBUG\CH13_03_.OBJ|D:\MODERN-X86-ASSEMBLY-LANGUAGE-PROGRAMMING-2E\CHAPTER13\CH13_03\X64\DEBUG\STDAFX.OBJ
D:\MODERN-X86-ASSEMBLY-LANGUAGE-PROGRAMMING-2E\CHAPTER13\CH13_03\X64\DEBUG\CH13_03.ILK
D:\MODERN-X86-ASSEMBLY-LANGUAGE-PROGRAMMING-2E\CHAPTER13\X64\DEBUG\CH13_03.EXE
D:\MODERN-X86-ASSEMBLY-LANGUAGE-PROGRAMMING-2E\CHAPTER13\X64\DEBUG\CH13_03.PDB
