^D:\MODERN-X86-ASSEMBLY-LANGUAGE-PROGRAMMING-2E\CHAPTER13\CH13_09\STDAFX.CPP
D:\MODERN-X86-ASSEMBLY-LANGUAGE-PROGRAMMING-2E\CHAPTER13\CH13_09\X64\DEBUG\CH13_09.PCH
D:\MODERN-X86-ASSEMBLY-LANGUAGE-PROGRAMMING-2E\CHAPTER13\CH13_09\X64\DEBUG\VC143.PDB
D:\MODERN-X86-ASSEMBLY-LANGUAGE-PROGRAMMING-2E\CHAPTER13\CH13_09\X64\DEBUG\VC143.IDB
D:\MODERN-X86-ASSEMBLY-LANGUAGE-PROGRAMMING-2E\CHAPTER13\CH13_09\X64\DEBUG\STDAFX.OBJ
D:\MODERN-X86-ASSEMBLY-LANGUAGE-PROGRAMMING-2E\CHAPTER13\CH13_09\X64\DEBUG\STDAFX.COD
^D:\MODERN-X86-ASSEMBLY-LANGUAGE-PROGRAMMING-2E\CHAPTER13\CH13_09\CH13_09.CPP|D:\MODERN-X86-ASSEMBLY-LANGUAGE-PROGRAMMING-2E\CHAPTER13\CH13_09\CH13_09_BM.CPP|D:\MODERN-X86-ASSEMBLY-LANGUAGE-PROGRAMMING-2E\CHAPTER13\CH13_09\CH13_09_MISC.CPP
D:\MODERN-X86-ASSEMBLY-LANGUAGE-PROGRAMMING-2E\CHAPTER13\CH13_09\X64\DEBUG\VC143.PDB
D:\MODERN-X86-ASSEMBLY-LANGUAGE-PROGRAMMING-2E\CHAPTER13\CH13_09\X64\DEBUG\VC143.IDB
D:\MODERN-X86-ASSEMBLY-LANGUAGE-PROGRAMMING-2E\CHAPTER13\CH13_09\X64\DEBUG\CH13_09_MISC.OBJ
D:\MODERN-X86-ASSEMBLY-LANGUAGE-PROGRAMMING-2E\CHAPTER13\CH13_09\X64\DEBUG\CH13_09_MISC.COD
D:\MODERN-X86-ASSEMBLY-LANGUAGE-PROGRAMMING-2E\CHAPTER13\CH13_09\X64\DEBUG\CH13_09_BM.OBJ
D:\MODERN-X86-ASSEMBLY-LANGUAGE-PROGRAMMING-2E\CHAPTER13\CH13_09\X64\DEBUG\CH13_09_BM.COD
D:\MODERN-X86-ASSEMBLY-LANGUAGE-PROGRAMMING-2E\CHAPTER13\CH13_09\X64\DEBUG\CH13_09.OBJ
D:\MODERN-X86-ASSEMBLY-LANGUAGE-PROGRAMMING-2E\CHAPTER13\CH13_09\X64\DEBUG\CH13_09.COD
^D:\MODERN-X86-ASSEMBLY-LANGUAGE-PROGRAMMING-2E\CHAPTER13\CH13_09\CH13_09.CPP
D:\MODERN-X86-ASSEMBLY-LANGUAGE-PROGRAMMING-2E\CHAPTER13\CH13_09\X64\DEBUG\VC143.PDB
^D:\MODERN-X86-ASSEMBLY-LANGUAGE-PROGRAMMING-2E\CHAPTER13\CH13_09\CH13_09_BM.CPP
D:\MODERN-X86-ASSEMBLY-LANGUAGE-PROGRAMMING-2E\CHAPTER13\CH13_09\X64\DEBUG\VC143.PDB
^D:\MODERN-X86-ASSEMBLY-LANGUAGE-PROGRAMMING-2E\CHAPTER13\CH13_09\CH13_09_MISC.CPP
D:\MODERN-X86-ASSEMBLY-LANGUAGE-PROGRAMMING-2E\CHAPTER13\CH13_09\X64\DEBUG\VC143.PDB
