^D:\MODERN-X86-ASSEMBLY-LANGUAGE-PROGRAMMING-2E\CHAPTER13\CH13_09\X64\DEBUG\CH13_09.OBJ|D:\MODERN-X86-ASSEMBLY-LANGUAGE-PROGRAMMING-2E\CHAPTER13\CH13_09\X64\DEBUG\CH13_09_.OBJ|D:\MODERN-X86-ASSEMBLY-LANGUAGE-PROGRAMMING-2E\CHAPTER13\CH13_09\X64\DEBUG\CH13_09_BM.OBJ|D:\MODERN-X86-ASSEMBLY-LANGUAGE-PROGRAMMING-2E\CHAPTER13\CH13_09\X64\DEBUG\CH13_09_MISC.OBJ|D:\MODERN-X86-ASSEMBLY-LANGUAGE-PROGRAMMING-2E\CHAPTER13\CH13_09\X64\DEBUG\STDAFX.OBJ
/OUT:"D:\MODERN-X86-ASSEMBLY-LANGUAGE-PROGRAMMING-2E\CHAPTER13\X64\DEBUG\CH13_09.EXE" /INCREMENTAL /ILK:"X64\DEBUG\CH13_09.ILK" /NOLOGO KERNEL32.LIB USER32.LIB GDI32.LIB WINSPOOL.LIB COMDLG32.LIB ADVAPI32.LIB SHELL32.LIB OLE32.LIB OLEAUT32.LIB UUID.LIB ODBC32.LIB ODBCCP32.LIB /MANIFEST /MANIFESTUAC:"level='asInvoker' uiAccess='false'" /manifest:embed /DEBUG /PDB:"D:\MODERN-X86-ASSEMBLY-LANGUAGE-PROGRAMMING-2E\CHAPTER13\X64\DEBUG\CH13_09.PDB" /SUBSYSTEM:CONSOLE /TLBID:1 /DYNAMICBASE /NXCOMPAT /IMPLIB:"D:\MODERN-X86-ASSEMBLY-LANGUAGE-PROGRAMMING-2E\CHAPTER13\X64\DEBUG\CH13_09.LIB" /MACHINE:X64 X64\DEBUG\CH13_09.OBJ
X64\DEBUG\CH13_09_BM.OBJ
X64\DEBUG\CH13_09_MISC.OBJ
X64\DEBUG\STDAFX.OBJ
X64\DEBUG\CH13_09_.OBJ
