Microsoft (R) Macro Assembler (x64) Version 14.33.31629.0   11/25/22 22:44:22
Ch13_03_.asm						     Page 1 - 1


				;-------------------------------------------------
				;               Ch13_03.asm
				;-------------------------------------------------

				; extern "C" void Avx512CvtF32ToU32_(uint32_t val_cvt[4], float val);

 00000000			        .code
 00000000			Avx512CvtF32ToU32_ proc
 00000000  62 F1 7E 18/ 79	        vcvtss2usi eax,xmm1{rn-sae}         ;Convert using round to nearest
	   C1
 00000006  89 01		        mov dword ptr [rcx],eax

 00000008  62 F1 7E 38/ 79	        vcvtss2usi eax,xmm1{rd-sae}         ;Convert using round down
	   C1
 0000000E  89 41 04		        mov dword ptr [rcx+4],eax

 00000011  62 F1 7E 58/ 79	        vcvtss2usi eax,xmm1{ru-sae}         ;Convert using round up
	   C1
 00000017  89 41 08		        mov dword ptr [rcx+8],eax

 0000001A  62 F1 7E 78/ 79	        vcvtss2usi eax,xmm1{rz-sae}         ;Convert using round to zero (truncate)
	   C1
 00000020  89 41 0C		        mov dword ptr [rcx+12],eax
 00000023  C3			        ret
 00000024			Avx512CvtF32ToU32_ endp

				; extern "C" void Avx512CvtF64ToU64_(uint64_t val_cvt[4], double val);

 00000024			Avx512CvtF64ToU64_ proc
 00000024  62 F1 FF 18/ 79	        vcvtsd2usi rax,xmm1{rn-sae}
	   C1
 0000002A  48/ 89 01		        mov qword ptr [rcx],rax

 0000002D  62 F1 FF 38/ 79	        vcvtsd2usi rax,xmm1{rd-sae}
	   C1
 00000033  48/ 89 41 08		        mov qword ptr [rcx+8],rax

 00000037  62 F1 FF 58/ 79	        vcvtsd2usi rax,xmm1{ru-sae}
	   C1
 0000003D  48/ 89 41 10		        mov qword ptr [rcx+16],rax

 00000041  62 F1 FF 78/ 79	        vcvtsd2usi rax,xmm1{rz-sae}
	   C1
 00000047  48/ 89 41 18		        mov qword ptr [rcx+24],rax
 0000004B  C3			        ret
 0000004C			Avx512CvtF64ToU64_ endp

				; extern "C" void Avx512CvtF64ToF32_(float val_cvt[4], double val);

 0000004C			Avx512CvtF64ToF32_ proc
 0000004C  62 F1 EF 18/ 5A	        vcvtsd2ss xmm2,xmm2,xmm1{rn-sae}
	   D1
 00000052  C5 FA/ 11 11		        vmovss real4 ptr [rcx],xmm2

 00000056  62 F1 EF 38/ 5A	        vcvtsd2ss xmm2,xmm2,xmm1{rd-sae}
	   D1
 0000005C  C5 FA/ 11 51		        vmovss real4 ptr [rcx+4],xmm2
	   04

 00000061  62 F1 EF 58/ 5A	        vcvtsd2ss xmm2,xmm2,xmm1{ru-sae}
	   D1
 00000067  C5 FA/ 11 51		        vmovss real4 ptr [rcx+8],xmm2
	   08

 0000006C  62 F1 EF 78/ 5A	        vcvtsd2ss xmm2,xmm2,xmm1{rz-sae}
	   D1
 00000072  C5 FA/ 11 51		        vmovss real4 ptr [rcx+12],xmm2
	   0C
 00000077  C3			        ret
 00000078			Avx512CvtF64ToF32_ endp
				        end
Microsoft (R) Macro Assembler (x64) Version 14.33.31629.0   11/25/22 22:44:22
Ch13_03_.asm						     Symbols 2 - 1




Procedures, parameters, and locals:

                N a m e                 Type     Value    Attr

Avx512CvtF32ToU32_ . . . . . . .	P 	 00000000 _TEXT	Length= 00000024 Public
Avx512CvtF64ToF32_ . . . . . . .	P 	 0000004C _TEXT	Length= 0000002C Public
Avx512CvtF64ToU64_ . . . . . . .	P 	 00000024 _TEXT	Length= 00000028 Public

	   0 Warnings
	   0 Errors
