Microsoft (R) Macro Assembler (x64) Version 14.33.31629.0   11/25/22 22:48:41
Ch14_01_.asm						     Page 1 - 1


				;-------------------------------------------------
				;               Ch14_01.asm
				;-------------------------------------------------

				; extern "C" void Avx512PackedMathI16_(const ZmmVal* a, const ZmmVal* b, ZmmVal c[6])

 00000000			        .code
 00000000			Avx512PackedMathI16_ proc
 00000000  62 F1 FF 48/ 6F	        vmovdqu16 zmm0,zmmword ptr [rcx]        ;zmm0 = a
	   01
 00000006  62 F1 FF 48/ 6F	        vmovdqu16 zmm1,zmmword ptr [rdx]        ;zmm1 = b
	   0A

				; Perform packed word operations
 0000000C  62 F1 7D 48/ FD	        vpaddw zmm2,zmm0,zmm1                   ;add
	   D1
 00000012  62 D1 FD 48/ 7F	        vmovdqa64 zmmword ptr [r8],zmm2         ;save vpaddw result
	   10

 00000018  62 F1 7D 48/ ED	        vpaddsw zmm2,zmm0,zmm1                  ;add with signed saturation
	   D1
 0000001E  62 D1 FD 48/ 7F	        vmovdqa64 zmmword ptr [r8+64],zmm2      ;save vpaddsw result
	   50 01

 00000025  62 F1 7D 48/ F9	        vpsubw zmm2,zmm0,zmm1                   ;sub
	   D1
 0000002B  62 D1 FD 48/ 7F	        vmovdqa64 zmmword ptr [r8+128],zmm2     ;save vpsubw result
	   50 02

 00000032  62 F1 7D 48/ E9	        vpsubsw zmm2,zmm0,zmm1                  ;sub with signed saturation
	   D1
 00000038  62 D1 FD 48/ 7F	        vmovdqa64 zmmword ptr [r8+192],zmm2     ;save vpsubsw result
	   50 03

 0000003F  62 F1 7D 48/ EA	        vpminsw zmm2,zmm0,zmm1                  ;signed minimums
	   D1
 00000045  62 D1 FD 48/ 7F	        vmovdqa64 zmmword ptr [r8+256],zmm2     ;save vpminsw result
	   50 04

 0000004C  62 F1 7D 48/ EE	        vpmaxsw zmm2,zmm0,zmm1                  ;signed maximums
	   D1
 00000052  62 D1 FD 48/ 7F	        vmovdqa64 zmmword ptr [r8+320],zmm2     ;save vpmaxsw result
	   50 05

 00000059  C5 F8 77		        vzeroupper
 0000005C  C3			        ret
 0000005D			Avx512PackedMathI16_ endp

				; extern "C" void Avx512PackedMathI64_(const ZmmVal* a, const ZmmVal* b, ZmmVal c[5], unsigned int opmask)

 0000005D			Avx512PackedMathI64_ proc
 0000005D  62 F1 FD 48/ 6F	        vmovdqa64 zmm0,zmmword ptr [rcx]        ;zmm0 = a
	   01
 00000063  62 F1 FD 48/ 6F	        vmovdqa64 zmm1,zmmword ptr [rdx]        ;zmm1 = b
	   0A

 00000069  41/ 81 E1		        and r9d,0ffh                            ;r9d = opmask value
	   000000FF
 00000070  C4 C1 79/ 92 C9	        kmovb k1,r9d                            ;k1 = opmask

				; Perform packed quadword operations
 00000075  62 F1 FD C9/ D4	        vpaddq zmm2{k1}{z},zmm0,zmm1            ;add
	   D1
 0000007B  62 D1 FD 48/ 7F	        vmovdqa64 zmmword ptr [r8],zmm2         ;save vpaddq result
	   10

 00000081  62 F1 FD C9/ FB	        vpsubq zmm2{k1}{z},zmm0,zmm1            ;sub
	   D1
 00000087  62 D1 FD 48/ 7F	        vmovdqa64 zmmword ptr [r8+64],zmm2      ;save vpsubq result
	   50 01

 0000008E  62 F2 FD C9/ 40	        vpmullq zmm2{k1}{z},zmm0,zmm1           ;signed mul (low 64 bits)
	   D1
 00000094  62 D1 FD 48/ 7F	        vmovdqa64 zmmword ptr [r8+128],zmm2     ;save vpmullq result
	   50 02

 0000009B  62 F2 FD C9/ 47	        vpsllvq zmm2{k1}{z},zmm0,zmm1           ;shift left logical
	   D1
 000000A1  62 D1 FD 48/ 7F	        vmovdqa64 zmmword ptr [r8+192],zmm2     ;save vpsllvq result
	   50 03

 000000A8  62 F2 FD C9/ 46	        vpsravq zmm2{k1}{z},zmm0,zmm1           ;shift right arithmetic
	   D1
 000000AE  62 D1 FD 48/ 7F	        vmovdqa64 zmmword ptr [r8+256],zmm2     ;save vpsravq result
	   50 04

 000000B5  62 F2 FD C9/ 1F	        vpabsq zmm2{k1}{z},zmm0                 ;absolute value
	   D0
 000000BB  62 D1 FD 48/ 7F	        vmovdqa64 zmmword ptr [r8+320],zmm2     ;save vpabsq result
	   50 05

 000000C2  C5 F8 77		        vzeroupper
 000000C5  C3			        ret
 000000C6			Avx512PackedMathI64_ endp
				        end
Microsoft (R) Macro Assembler (x64) Version 14.33.31629.0   11/25/22 22:48:41
Ch14_01_.asm						     Symbols 2 - 1




Procedures, parameters, and locals:

                N a m e                 Type     Value    Attr

Avx512PackedMathI16_ . . . . . .	P 	 00000000 _TEXT	Length= 0000005D Public
Avx512PackedMathI64_ . . . . . .	P 	 0000005D _TEXT	Length= 00000069 Public

	   0 Warnings
	   0 Errors
